{
    "page": 1,
    "total_pages": 116,
    "total_items": 576,
    "data": [
        {
            "id": "1ddd2652-9abd-46b9-8bf2-a43c7579c851",
            "created_at": "2023-03-09 13:43:15",
            "user": "raphealolams@gmail.com raphael ajilore",
            "ledger_operation": "KYSHI_TO_CARD_TRANSFER",
            "amount": "45.00",
            "currency": "USD",
            "status": "PENDING",
            "processor": "SUDO",
            "channel": "CARD_TOPUP",
            "type": "CR",
            "service_charge": "0.00",
            "available_balance": null,
            "ledger_balance": null,
            "beneficiary": null,
            "offer_id": null
        },
        {
            "id": "4b425028-99b9-488a-93d3-c7b54809bc13",
            "created_at": "2023-03-09 13:43:14",
            "user": "raphealolams@gmail.com raphael ajilore",
            "ledger_operation": "LEDGER_TO_KYSHI_TRANSFER",
            "amount": "35918.19",
            "currency": "NGN",
            "status": "SUCCESS",
            "processor": "KYSHI",
            "channel": "CARD_TOPUP",
            "type": "DR",
            "service_charge": "0.00",
            "available_balance": 9894276.98,
            "ledger_balance": 9894276.98,
            "beneficiary": null,
            "offer_id": null
        },
        {
            "id": "bebddaeb-5141-439b-992f-f6116a715489",
            "created_at": "2023-03-03 13:19:39",
            "user": "raphealolams@gmail.com raphael ajilore",
            "ledger_operation": "KYSHI_TO_LEDGER_TRANSFER",
            "amount": "0.00",
            "currency": "NGN",
            "status": "SUCCESS",
            "processor": "KYSHI",
            "channel": "FUND",
            "type": "CR",
            "service_charge": "0.00",
            "available_balance": 9894276.98,
            "ledger_balance": 9894276.98,
            "beneficiary": null,
            "offer_id": null
        },
        {
            "id": "4b1faa79-47a1-431c-ae19-68d46c846977",
            "created_at": "2023-03-03 13:19:39",
            "user": "raphealolams@gmail.com raphael ajilore",
            "ledger_operation": null,
            "amount": "0.00",
            "currency": "USD",
            "status": "SUCCESS",
            "processor": "KYSHI",
            "channel": "CARD_WITHDRAWAL",
            "type": "DR",
            "service_charge": "0.00",
            "available_balance": null,
            "ledger_balance": null,
            "beneficiary": null,
            "offer_id": null
        },
        {
            "id": "4cf74037-e359-4282-bf1e-f07b99e8d068",
            "created_at": "2023-03-03 13:19:18",
            "user": "raphealolams@gmail.com raphael ajilore",
            "ledger_operation": "KYSHI_TO_CARD_TRANSFER",
            "amount": "21.00",
            "currency": "USD",
            "status": "PENDING",
            "processor": "SUDO",
            "channel": "CARD_TOPUP",
            "type": "CR",
            "service_charge": "0.00",
            "available_balance": null,
            "ledger_balance": null,
            "beneficiary": null,
            "offer_id": null
        }
    ],
    "status": "True"
}